ZPER - 2nd Competition (Predict Opening & Closing of Hospitals)
…
## [1] 178

length(unique(unlist(test_dta$sgg)))

## [1] 89

It seems that there are districts that exist in the test set and not in the training set. This may lead to the sgg variable being eliminated before training the prediction model later as it cannot be used to discriminate opening hospoital from closing ones (at least not in a straightforward manner).

train_dta %>% 
  group_by(sido,sgg) %>% 
  summarise(count = n()) %>% 
  arrange(sgg)

## # A tibble: 155 x 3
## # Groups: sido [16]
##    sido        sgg count
##    <chr>     <int> <int>
##  1 seoul         1     1
##  2 gangwon       2     2
##  3 seoul         3     1
##  4 seoul         4     3
##  5 gyeongnam     5     2
##  6 gyeongnam     6     1
##  7 gyeongbuk     7     4
##  8 gyeongbuk     8     6
##  9 choongnam     9     1
## 10 gyeongnam    11     1
## # ... with 145 more rows

The above command was to make sure that each sgg belongs to only one sido (i.e.that no sgg appears with more than one sido in the data). This makes sense as each district should only belong to one provinc/city (a district belonging to two provinces would not make sense).

test_dta %>% 
  group_by(sido,sgg) %>% 
  summarise(count = n()) %>% 
  arrange(sgg)

## # A tibble: 89 x 3
## # Groups: sido [15]
##    sido        sgg count
##    <chr>     <int> <int>
##  1 gyeongnam     6     1
##  2 gyeongbuk     8     3
##  3 gyeongbuk    10     1
##  4 gyeonggi     12     1
##  5 jeonnam      15     1
##  6 seoul        23     2
##  7 gyeonggi     24     1
##  8 gyeongbuk    25     1
##  9 jeonbuk      26     4
## 10 choongnam    28     1
## # ... with 79 more rows
…
